*** Darwin 8x8 ***
Turn = 0.
  01234567
0 f.......
1 ........
2 ........
3 ...hh...
4 ...hh...
5 ........
6 ........
7 .......f

Turn = 3.
  01234567
0 f..h....
1 ........
2 ........
3 .......h
4 h.......
5 ........
6 ........
7 ....h..f

*** Darwin 7x9 ***
Turn = 0.
  012345678
0 t........
1 .........
2 .........
3 ..h......
4 .........
5 ....r....
6 ........t

Turn = 1.
  012345678
0 t........
1 .........
2 .........
3 ...h.....
4 ....r....
5 .........
6 ........t

Turn = 2.
  012345678
0 t........
1 .........
2 .........
3 ....r....
4 ....r....
5 .........
6 ........t

Turn = 3.
  012345678
0 t........
1 .........
2 .........
3 ....rr...
4 .........
5 .........
6 ........t

Turn = 4.
  012345678
0 t........
1 .........
2 ....r....
3 ......r..
4 .........
5 .........
6 ........t

Turn = 5.
  012345678
0 t........
1 ....r....
2 .........
3 .......r.
4 .........
5 .........
6 ........t

*** Darwin 5x5 ***
Turn = 0.
  01234
0 hhhhh
1 .....
2 .....
3 .....
4 .....

Turn = 1.
  01234
0 .....
1 hhhhh
2 .....
3 .....
4 .....

Turn = 2.
  01234
0 .....
1 .....
2 hhhhh
3 .....
4 .....

Turn = 3.
  01234
0 .....
1 .....
2 .....
3 hhhhh
4 .....

Turn = 4.
  01234
0 .....
1 .....
2 .....
3 .....
4 hhhhh

Turn = 5.
  01234
0 .....
1 .....
2 .....
3 .....
4 hhhhh

Turn = 6.
  01234
0 .....
1 .....
2 .....
3 .....
4 hhhhh

*** Darwin 5x5 ***
Turn = 0.
  01234
0 h....
1 h....
2 h....
3 h....
4 h....

Turn = 1.
  01234
0 h....
1 h....
2 h....
3 h....
4 h....

Turn = 2.
  01234
0 h....
1 h....
2 h....
3 h....
4 h....

Turn = 3.
  01234
0 h....
1 h....
2 h....
3 h....
4 h....

Turn = 4.
  01234
0 h....
1 h....
2 h....
3 h....
4 h....

Turn = 5.
  01234
0 h....
1 h....
2 h....
3 h....
4 h....

*** Darwin 5x5 ***
Turn = 0.
  01234
0 h....
1 h....
2 h....
3 h....
4 h....

Turn = 1.
  01234
0 .h...
1 .h...
2 .h...
3 .h...
4 .h...

Turn = 2.
  01234
0 ..h..
1 ..h..
2 ..h..
3 ..h..
4 ..h..

Turn = 3.
  01234
0 ...h.
1 ...h.
2 ...h.
3 ...h.
4 ...h.

Turn = 4.
  01234
0 ....h
1 ....h
2 ....h
3 ....h
4 ....h

Turn = 5.
  01234
0 ....h
1 ....h
2 ....h
3 ....h
4 ....h

*** Darwin 5x5 ***
Turn = 0.
  01234
0 h....
1 h....
2 h....
3 h....
4 h....

Turn = 1.
  01234
0 h....
1 .h...
2 .h...
3 .h...
4 .h...

Turn = 2.
  01234
0 .....
1 h.h..
2 ..h..
3 ..h..
4 ..h..

Turn = 3.
  01234
0 .....
1 ...h.
2 h..h.
3 ...h.
4 ...h.

Turn = 4.
  01234
0 .....
1 ....h
2 ....h
3 h...h
4 ....h

Turn = 5.
  01234
0 .....
1 ....h
2 ....h
3 ....h
4 h...h

*** Darwin 5x5 ***
Turn = 0.
  01234
0 hhhhh
1 fffff
2 .....
3 .....
4 .....

Turn = 1.
  01234
0 hhhhh
1 fffff
2 .....
3 .....
4 .....

Turn = 2.
  01234
0 hhhhh
1 fffff
2 .....
3 .....
4 .....

Turn = 3.
  01234
0 hhhhh
1 fffff
2 .....
3 .....
4 .....

Turn = 4.
  01234
0 hhhhh
1 fffff
2 .....
3 .....
4 .....

Turn = 5.
  01234
0 hhhhh
1 fffff
2 .....
3 .....
4 .....

*** Darwin 5x5 ***
Turn = 0.
  01234
0 hhhhh
1 f.f.f
2 .....
3 .....
4 .f.f.

Turn = 1.
  01234
0 h.h.h
1 fhfhf
2 .....
3 .....
4 .f.f.

Turn = 2.
  01234
0 h.h.h
1 f.f.f
2 .h.h.
3 .....
4 .f.f.

Turn = 3.
  01234
0 h.h.h
1 f.f.f
2 .....
3 .h.h.
4 .f.f.

Turn = 4.
  01234
0 h.h.h
1 f.f.f
2 .....
3 .h.h.
4 .f.f.

Turn = 5.
  01234
0 h.h.h
1 f.f.f
2 .....
3 .h.h.
4 .f.f.

*** Darwin 22x22 ***
Turn = 0.
  0123456789012345678901
0 f.....................
1 ......................
2 ......................
3 ......................
4 ......................
5 ......................
6 ......................
7 ......................
8 ......................
9 ......................
0 ......................
1 ......................
2 ......................
3 ......................
4 ......................
5 ......................
6 ......................
7 ......................
8 ......................
9 ......................
0 ......................
1 ......................

Turn = 1.
  0123456789012345678901
0 f.....................
1 ......................
2 ......................
3 ......................
4 ......................
5 ......................
6 ......................
7 ......................
8 ......................
9 ......................
0 ......................
1 ......................
2 ......................
3 ......................
4 ......................
5 ......................
6 ......................
7 ......................
8 ......................
9 ......................
0 ......................
1 ......................

*** Darwin 4x4 ***
Turn = 0.
  0123
0 tf..
1 ....
2 ....
3 ....

Turn = 1.
  0123
0 tf..
1 ....
2 ....
3 ....

Turn = 2.
  0123
0 tf..
1 ....
2 ....
3 ....

Turn = 3.
  0123
0 tf..
1 ....
2 ....
3 ....

Turn = 4.
  0123
0 tt..
1 ....
2 ....
3 ....

Turn = 5.
  0123
0 tt..
1 ....
2 ....
3 ....

*** Darwin 3x3 ***
Turn = 0.
  012
0 .f.
1 ftf
2 .f.

Turn = 1.
  012
0 .t.
1 ftf
2 .f.

Turn = 2.
  012
0 .t.
1 ftf
2 .f.

Turn = 3.
  012
0 .t.
1 ttf
2 .f.

Turn = 4.
  012
0 .t.
1 ttf
2 .f.

Turn = 5.
  012
0 .t.
1 ttf
2 .t.

Turn = 6.
  012
0 .t.
1 ttf
2 .t.

Turn = 7.
  012
0 .t.
1 ttt
2 .t.

Turn = 8.
  012
0 .t.
1 ttt
2 .t.

*** Darwin 20x20 ***
Turn = 0.
  01234567890123456789
0 f...................
1 .f..................
2 ..f.................
3 ...f................
4 ....f...............
5 .....f..............
6 ......h.............
7 .......h............
8 ........h...........
9 .........h..........
0 ..........h.........
1 ...........r........
2 ............r.......
3 .............r......
4 ..............r.....
5 ...............r....
6 ................f...
7 .................f..
8 ..................f.
9 ...................f

Turn = 3.
  01234567890123456789
0 f...................
1 .f..................
2 ..f.................
3 ...f................
4 ....f...............
5 .....f..............
6 .........h..........
7 ..........h.........
8 ...........h........
9 ............h.......
0 .............h......
1 ..............r.....
2 ...............r....
3 ................r...
4 .................r..
5 ..................r.
6 ................f...
7 .................f..
8 ..................f.
9 ...................f

*** Darwin 100x100 ***
Turn = 0.
  0123456789012345678901234567890123456789012345678901234567890123456789012345678901234567890123456789
0 ....................................................................................................
1 rrrrrrrrrrrrrrrrrrrr................................................................................
2 ....................................................................................................
3 ....................................................................................................
4 ....................................................................................................
5 ....................................................................................................
6 ....................................................................................................
7 ....................................................................................................
8 ....................................................................................................
9 ....................................................................................................
0 ....................................................................................................
1 ....................................................................................................
2 ....................................................................................................
3 ....................................................................................................
4 ....................................................................................................
5 ....................................................................................................
6 ....................................................................................................
7 ....................................................................................................
8 ....................................................................................................
9 ....................................................................................................
0 ....................................................................................................
1 ....................................................................................................
2 ....................................................................................................
3 ....................................................................................................
4 ....................................................................................................
5 ....................................................................................................
6 ....................................................................................................
7 ....................................................................................................
8 ....................................................................................................
9 ....................................................................................................
0 ....................................................................................................
1 ....................................................................................................
2 ....................................................................................................
3 ....................................................................................................
4 ....................................................................................................
5 ....................................................................................................
6 ....................................................................................................
7 ....................................................................................................
8 ....................................................................................................
9 ....................................................................................................
0 ....................................................................................................
1 ....................................................................................................
2 ....................................................................................................
3 ....................................................................................................
4 ....................................................................................................
5 ....................................................................................................
6 ....................................................................................................
7 ....................................................................................................
8 ....................................................................................................
9 ....................................................................................................
0 ....................................................................................................
1 ....................................................................................................
2 ....................................................................................................
3 ....................................................................................................
4 ....................................................................................................
5 ....................................................................................................
6 ....................................................................................................
7 ....................................................................................................
8 ....................................................................................................
9 ....................................................................................................
0 ....................................................................................................
1 ....................................................................................................
2 ....................................................................................................
3 ....................................................................................................
4 ....................................................................................................
5 ....................................................................................................
6 ....................................................................................................
7 ....................................................................................................
8 ....................................................................................................
9 ....................................................................................................
0 ....................................................................................................
1 ....................................................................................................
2 ....................................................................................................
3 ....................................................................................................
4 ....................................................................................................
5 ....................................................................................................
6 ....................................................................................................
7 ....................................................................................................
8 ....................................................................................................
9 ....................................................................................................
0 ....................................................................................................
1 ....................................................................................................
2 ....................................................................................................
3 ....................................................................................................
4 ....................................................................................................
5 ....................................................................................................
6 ....................................................................................................
7 ....................................................................................................
8 ....................................................................................................
9 ....................................................................................................
0 ....................................................................................................
1 ....................................................................................................
2 ....................................................................................................
3 ....................................................................................................
4 ....................................................................................................
5 ....................................................................................................
6 ....................................................................................................
7 ....................................................................................................
8 ....................................................................................................
9 ....................................................................................................

Turn = 3.
  0123456789012345678901234567890123456789012345678901234567890123456789012345678901234567890123456789
0 rrrrrrrrrrrrrrrrrrrr................................................................................
1 ....................................................................................................
2 ....................................................................................................
3 ....................................................................................................
4 ....................................................................................................
5 ....................................................................................................
6 ....................................................................................................
7 ....................................................................................................
8 ....................................................................................................
9 ....................................................................................................
0 ....................................................................................................
1 ....................................................................................................
2 ....................................................................................................
3 ....................................................................................................
4 ....................................................................................................
5 ....................................................................................................
6 ....................................................................................................
7 ....................................................................................................
8 ....................................................................................................
9 ....................................................................................................
0 ....................................................................................................
1 ....................................................................................................
2 ....................................................................................................
3 ....................................................................................................
4 ....................................................................................................
5 ....................................................................................................
6 ....................................................................................................
7 ....................................................................................................
8 ....................................................................................................
9 ....................................................................................................
0 ....................................................................................................
1 ....................................................................................................
2 ....................................................................................................
3 ....................................................................................................
4 ....................................................................................................
5 ....................................................................................................
6 ....................................................................................................
7 ....................................................................................................
8 ....................................................................................................
9 ....................................................................................................
0 ....................................................................................................
1 ....................................................................................................
2 ....................................................................................................
3 ....................................................................................................
4 ....................................................................................................
5 ....................................................................................................
6 ....................................................................................................
7 ....................................................................................................
8 ....................................................................................................
9 ....................................................................................................
0 ....................................................................................................
1 ....................................................................................................
2 ....................................................................................................
3 ....................................................................................................
4 ....................................................................................................
5 ....................................................................................................
6 ....................................................................................................
7 ....................................................................................................
8 ....................................................................................................
9 ....................................................................................................
0 ....................................................................................................
1 ....................................................................................................
2 ....................................................................................................
3 ....................................................................................................
4 ....................................................................................................
5 ....................................................................................................
6 ....................................................................................................
7 ....................................................................................................
8 ....................................................................................................
9 ....................................................................................................
0 ....................................................................................................
1 ....................................................................................................
2 ....................................................................................................
3 ....................................................................................................
4 ....................................................................................................
5 ....................................................................................................
6 ....................................................................................................
7 ....................................................................................................
8 ....................................................................................................
9 ....................................................................................................
0 ....................................................................................................
1 ....................................................................................................
2 ....................................................................................................
3 ....................................................................................................
4 ....................................................................................................
5 ....................................................................................................
6 ....................................................................................................
7 ....................................................................................................
8 ....................................................................................................
9 ....................................................................................................
0 ....................................................................................................
1 ....................................................................................................
2 ....................................................................................................
3 ....................................................................................................
4 ....................................................................................................
5 ....................................................................................................
6 ....................................................................................................
7 ....................................................................................................
8 ....................................................................................................
9 ....................................................................................................

*** Darwin 10x10 ***
Turn = 0.
  0123456789
0 ..........
1 ..........
2 ..........
3 .f........
4 ..........
5 ..........
6 ..f.......
7 ...f......
8 ....f.....
9 .....f....

Turn = 4.
  0123456789
0 ..........
1 ..........
2 ..........
3 .f........
4 ..........
5 ..........
6 ..f.......
7 ...f......
8 ....f.....
9 .....f....

*** Darwin 50x50 ***
Turn = 0.
  01234567890123456789012345678901234567890123456789
0 ff.hh.............................................
1 fffrrrrrrrrrrrrrrrrr..............................
2 .ff...............................................
3 ...f..............................................
4 ....f.............................................
5 .....f............................................
6 ......h...........................................
7 .......h..........................................
8 ........h.........................................
9 .........h........................................
0 ..........h.......................................
1 ...........r......................................
2 ............r.....................................
3 .............r....................................
4 ..............r...................................
5 ...............r..................................
6 ................f.................................
7 .................f................................
8 ..................f...............................
9 ...................f..............................
0 ..................................................
1 ..................................................
2 ..................................................
3 ..................................................
4 ..................................................
5 ..................................................
6 ..................................................
7 ..................................................
8 ..................................................
9 ..................................................
0 ..................................................
1 ..................................................
2 ..................................................
3 ..................................................
4 ..................................................
5 ..................................................
6 ..................................................
7 ..................................................
8 ..................................................
9 ..................................................
0 ..................................................
1 ..................................................
2 ..................................................
3 ..................................................
4 ..................................................
5 ..................................................
6 ..................................................
7 ..................................................
8 ..................................................
9 ..................................................

Turn = 3.
  01234567890123456789012345678901234567890123456789
0 ffr.rrrrrrrrrrrrrrrr..............................
1 ffrrr.............................................
2 .ff...............................................
3 ...f..............................................
4 ....f.............................................
5 .....f............................................
6 .........h........................................
7 ..........h.......................................
8 ...........h......................................
9 ............h.....................................
0 .............h....................................
1 ..............r...................................
2 ...............r..................................
3 ................r.................................
4 .................r................................
5 ..................r...............................
6 ................f.................................
7 .................f................................
8 ..................f...............................
9 ...................f..............................
0 ..................................................
1 ..................................................
2 ..................................................
3 ..................................................
4 ..................................................
5 ..................................................
6 ..................................................
7 ..................................................
8 ..................................................
9 ..................................................
0 ..................................................
1 ..................................................
2 ..................................................
3 ..................................................
4 ..................................................
5 ..................................................
6 ..................................................
7 ..................................................
8 ..................................................
9 ..................................................
0 ..................................................
1 ..................................................
2 ..................................................
3 ..................................................
4 ..................................................
5 ..................................................
6 ..................................................
7 ..................................................
8 ..................................................
9 ..................................................

*** Darwin 20x20 ***
Turn = 0.
  01234567890123456789
0 ....................
1 .....r..............
2 ....................
3 ....................
4 ....................
5 ....................
6 ....................
7 ....................
8 ....................
9 ....................
0 ....r...............
1 ...f..t.............
2 ..r....t............
3 .t......r...........
4 t........f..........
5 ..........r........r
6 ....t.............f.
7 ...t.............r..
8 ..r.............t...
9 .f.............t....

Turn = 5.
  01234567890123456789
0 ....................
1 ..........r.........
2 ....................
3 ....................
4 ....................
5 ....................
6 ....................
7 ..r.................
8 ....................
9 ....................
0 ......t............r
1 ...f..t.............
2 .......t............
3 .t.....t............
4 t........f..........
5 .....r..............
6 ....t.............f.
7 ...t........r.......
8 .......r........t...
9 .f.............t....

Turn = 10.
  01234567890123456789
0 ....................
1 ...............r....
2 ..r.................
3 ....................
4 ....................
5 ...................r
6 ....................
7 ....................
8 ....................
9 ....................
0 ......t.............
1 ...f..t.............
2 .......t............
3 .t.....t............
4 t........f..........
5 r...................
6 ....t.............f.
7 ...t...r............
8 ............r...t...
9 .f.............t....

Turn = 15.
  01234567890123456789
0 ....r...............
1 ...................r
2 ..................r.
3 ....................
4 ....................
5 ....................
6 ....................
7 ....................
8 ....................
9 ....................
0 ......t.............
1 ...f..t.............
2 .......t............
3 .t.....t............
4 t........f..........
5 t...................
6 ....t.............f.
7 ....t...............
8 ...r...........t..r.
9 .f.............t....

Turn = 20.
  01234567890123456789
0 .........r..........
1 ....................
2 .............r......
3 ....................
4 ....................
5 ....................
6 ...................r
7 ....................
8 ....................
9 ....................
0 ......t.............
1 ...f..t.............
2 .......t............
3 .t.....t............
4 t........f..........
5 t...................
6 ....t.............f.
7 ....t...............
8 ...............t....
9 .rr............t..r.

*** Darwin 50x50 ***
Turn = 0.
  01234567890123456789012345678901234567890123456789
0 hhhhh.............................................
1 fffffr............................................
2 ..f...............................................
3 ...f..............................................
4 ....f.............................................
5 .....f............................................
6 ......h...........................................
7 .......h..........................................
8 ........h.........................................
9 .........h........................................
0 ....r.....h.......................................
1 ...f..t....r......................................
2 ..r....t....r.....................................
3 .t......r....r....................................
4 t........f....r...................................
5 ..........r....r...r..............................
6 ....t...........f.f...............................
7 ...t.............f................................
8 ..r.............t.f...............................
9 .f.............t...f..............................
0 ..................................................
1 ..................................................
2 ..................................................
3 ..................................................
4 ..................................................
5 ..................................................
6 ..................................................
7 ..................................................
8 ..................................................
9 ..................................................
0 ..................................................
1 ..................................................
2 ..................................................
3 ..................................................
4 ..................................................
5 ..................................................
6 ..................................................
7 ..................................................
8 ..................................................
9 ..................................................
0 ..................................................
1 ..................................................
2 ..................................................
3 ..................................................
4 ..................................................
5 ..................................................
6 ..................................................
7 ..................................................
8 ..................................................
9 ..................................................

Turn = 4.
  01234567890123456789012345678901234567890123456789
0 hhhhh.............................................
1 fffff....r........................................
2 ..f...............................................
3 ...f..............................................
4 ....f.............................................
5 .....f............................................
6 ..........h.......................................
7 ...........h......................................
8 ..r.........h.....................................
9 .............h....................................
0 ......t.......h...................................
1 ...f..t........r...r..............................
2 .......t........r.................................
3 .t.....t.........r................................
4 t........f........r...............................
5 ......r............r..............................
6 ....t...........f.f...............................
7 ...t.............f................................
8 ......r.........t.f...............................
9 .f.............t...f..............................
0 ..................................................
1 ..................................................
2 ..................................................
3 ..................................................
4 ..................................................
5 ..................................................
6 ..................................................
7 ..................................................
8 ..................................................
9 ..................................................
0 ..................................................
1 ..................................................
2 ..................................................
3 ..................................................
4 ..................................................
5 ..................................................
6 ..................................................
7 ..................................................
8 ..................................................
9 ..................................................
0 ..................................................
1 ..................................................
2 ..................................................
3 ..................................................
4 ..................................................
5 ..................................................
6 ..................................................
7 ..................................................
8 ..................................................
9 ..................................................

Turn = 8.
  01234567890123456789012345678901234567890123456789
0 hhhhh.............................................
1 fffff........r....................................
2 ..f...............................................
3 ...f..............................................
4 ..r.f.............................................
5 .....f............................................
6 ..............h...................................
7 ...............h...r..............................
8 ................h.................................
9 .................h................................
0 ......t...........h...............................
1 ...f..t............r..............................
2 .......t............r.............................
3 .t.....t.............r............................
4 t........f............r...........................
5 ..r....................r..........................
6 ....t...........f.f...............................
7 ...t.............f................................
8 ..........r.....t.f...............................
9 .f.............t...f..............................
0 ..................................................
1 ..................................................
2 ..................................................
3 ..................................................
4 ..................................................
5 ..................................................
6 ..................................................
7 ..................................................
8 ..................................................
9 ..................................................
0 ..................................................
1 ..................................................
2 ..................................................
3 ..................................................
4 ..................................................
5 ..................................................
6 ..................................................
7 ..................................................
8 ..................................................
9 ..................................................
0 ..................................................
1 ..................................................
2 ..................................................
3 ..................................................
4 ..................................................
5 ..................................................
6 ..................................................
7 ..................................................
8 ..................................................
9 ..................................................

*** Darwin 51x1 ***
Turn = 0.
  0
0 h
1 h
2 h
3 h
4 h
5 h
6 h
7 h
8 h
9 h
0 h
1 h
2 h
3 h
4 h
5 h
6 h
7 h
8 h
9 h
0 h
1 h
2 h
3 h
4 h
5 h
6 h
7 h
8 h
9 h
0 h
1 h
2 h
3 h
4 h
5 h
6 h
7 h
8 h
9 h
0 h
1 h
2 h
3 h
4 h
5 h
6 h
7 h
8 h
9 h
0 .

Turn = 10.
  0
0 h
1 h
2 h
3 h
4 h
5 h
6 h
7 h
8 h
9 h
0 h
1 h
2 h
3 h
4 h
5 h
6 h
7 h
8 h
9 h
0 h
1 h
2 h
3 h
4 h
5 h
6 h
7 h
8 h
9 h
0 h
1 h
2 h
3 h
4 h
5 h
6 h
7 h
8 h
9 h
0 .
1 h
2 h
3 h
4 h
5 h
6 h
7 h
8 h
9 h
0 h

Turn = 20.
  0
0 h
1 h
2 h
3 h
4 h
5 h
6 h
7 h
8 h
9 h
0 h
1 h
2 h
3 h
4 h
5 h
6 h
7 h
8 h
9 h
0 h
1 h
2 h
3 h
4 h
5 h
6 h
7 h
8 h
9 h
0 .
1 h
2 h
3 h
4 h
5 h
6 h
7 h
8 h
9 h
0 h
1 h
2 h
3 h
4 h
5 h
6 h
7 h
8 h
9 h
0 h

Turn = 30.
  0
0 h
1 h
2 h
3 h
4 h
5 h
6 h
7 h
8 h
9 h
0 h
1 h
2 h
3 h
4 h
5 h
6 h
7 h
8 h
9 h
0 .
1 h
2 h
3 h
4 h
5 h
6 h
7 h
8 h
9 h
0 h
1 h
2 h
3 h
4 h
5 h
6 h
7 h
8 h
9 h
0 h
1 h
2 h
3 h
4 h
5 h
6 h
7 h
8 h
9 h
0 h

Turn = 40.
  0
0 h
1 h
2 h
3 h
4 h
5 h
6 h
7 h
8 h
9 h
0 .
1 h
2 h
3 h
4 h
5 h
6 h
7 h
8 h
9 h
0 h
1 h
2 h
3 h
4 h
5 h
6 h
7 h
8 h
9 h
0 h
1 h
2 h
3 h
4 h
5 h
6 h
7 h
8 h
9 h
0 h
1 h
2 h
3 h
4 h
5 h
6 h
7 h
8 h
9 h
0 h

Turn = 50.
  0
0 .
1 h
2 h
3 h
4 h
5 h
6 h
7 h
8 h
9 h
0 h
1 h
2 h
3 h
4 h
5 h
6 h
7 h
8 h
9 h
0 h
1 h
2 h
3 h
4 h
5 h
6 h
7 h
8 h
9 h
0 h
1 h
2 h
3 h
4 h
5 h
6 h
7 h
8 h
9 h
0 h
1 h
2 h
3 h
4 h
5 h
6 h
7 h
8 h
9 h
0 h

*** Darwin 51x1 ***
Turn = 0.
  0
0 t
1 f
2 f
3 f
4 f
5 f
6 f
7 f
8 f
9 f
0 f
1 f
2 f
3 f
4 f
5 f
6 f
7 f
8 f
9 f
0 f
1 f
2 f
3 f
4 f
5 f
6 f
7 f
8 f
9 f
0 f
1 f
2 f
3 f
4 f
5 f
6 f
7 f
8 f
9 f
0 f
1 f
2 f
3 f
4 f
5 f
6 f
7 f
8 f
9 f
0 .

Turn = 10.
  0
0 t
1 t
2 t
3 t
4 t
5 t
6 t
7 t
8 t
9 t
0 t
1 t
2 t
3 t
4 t
5 t
6 t
7 t
8 t
9 t
0 t
1 t
2 t
3 t
4 t
5 t
6 t
7 t
8 t
9 t
0 t
1 t
2 t
3 t
4 t
5 t
6 t
7 t
8 t
9 t
0 t
1 t
2 t
3 t
4 t
5 t
6 t
7 t
8 t
9 t
0 .

Turn = 20.
  0
0 t
1 t
2 t
3 t
4 t
5 t
6 t
7 t
8 t
9 t
0 t
1 t
2 t
3 t
4 t
5 t
6 t
7 t
8 t
9 t
0 t
1 t
2 t
3 t
4 t
5 t
6 t
7 t
8 t
9 t
0 t
1 t
2 t
3 t
4 t
5 t
6 t
7 t
8 t
9 t
0 t
1 t
2 t
3 t
4 t
5 t
6 t
7 t
8 t
9 t
0 .

Turn = 30.
  0
0 t
1 t
2 t
3 t
4 t
5 t
6 t
7 t
8 t
9 t
0 t
1 t
2 t
3 t
4 t
5 t
6 t
7 t
8 t
9 t
0 t
1 t
2 t
3 t
4 t
5 t
6 t
7 t
8 t
9 t
0 t
1 t
2 t
3 t
4 t
5 t
6 t
7 t
8 t
9 t
0 t
1 t
2 t
3 t
4 t
5 t
6 t
7 t
8 t
9 t
0 .

Turn = 40.
  0
0 t
1 t
2 t
3 t
4 t
5 t
6 t
7 t
8 t
9 t
0 t
1 t
2 t
3 t
4 t
5 t
6 t
7 t
8 t
9 t
0 t
1 t
2 t
3 t
4 t
5 t
6 t
7 t
8 t
9 t
0 t
1 t
2 t
3 t
4 t
5 t
6 t
7 t
8 t
9 t
0 t
1 t
2 t
3 t
4 t
5 t
6 t
7 t
8 t
9 t
0 .

Turn = 50.
  0
0 t
1 t
2 t
3 t
4 t
5 t
6 t
7 t
8 t
9 t
0 t
1 t
2 t
3 t
4 t
5 t
6 t
7 t
8 t
9 t
0 t
1 t
2 t
3 t
4 t
5 t
6 t
7 t
8 t
9 t
0 t
1 t
2 t
3 t
4 t
5 t
6 t
7 t
8 t
9 t
0 t
1 t
2 t
3 t
4 t
5 t
6 t
7 t
8 t
9 t
0 .

*** Darwin 40x20 ***
Turn = 0.
  01234567890123456789
0 ff..................
1 ftf..r..............
2 .ff.................
3 ...hh...............
4 ...hh...............
5 .....f..............
6 ......h.............
7 .......f............
8 ........h...........
9 .........h..........
0 f...r.....h.........
1 f..f..t....r........
2 f.r....t....r.......
3 ft......r....r......
4 t........f....r.....
5 f.........r....r...r
6 f...t...........f.f.
7 f..t.............r..
8 f.r.............t.f.
9 ff.............t...f
0 f...................
1 f...................
2 f...................
3 f...................
4 f...................
5 f...................
6 f...................
7 f...................
8 f...................
9 f...................
0 f...................
1 ....................
2 ....................
3 ....................
4 ....................
5 ....................
6 ....................
7 ....................
8 ....................
9 ....................

Turn = 5.
  01234567890123456789
0 tt.h................
1 ttf.......r.........
2 .tf.................
3 .........h..........
4 h...................
5 .....f..............
6 ...........h........
7 ..r....f............
8 .............h......
9 ....h.........h.....
0 f.....t........h...r
1 f..f..t.........r...
2 t......t.........r..
3 tt.....t..........r.
4 t........f.........r
5 t....r.............r
6 f...t...........f.f.
7 f..t........r.......
8 f......r........t.f.
9 ff.............t...f
0 f...................
1 f...................
2 f...................
3 f...................
4 f...................
5 f...................
6 f...................
7 f...................
8 f...................
9 f...................
0 f...................
1 ....................
2 ....................
3 ....................
4 ....................
5 ....................
6 ....................
7 ....................
8 ....................
9 ....................

Turn = 10.
  01234567890123456789
0 tt.h................
1 ttt............r....
2 .tr.................
3 ..r...........h.....
4 h...................
5 .....f.............r
6 ................h...
7 .......f............
8 ..................h.
9 ...................h
0 f.....t............r
1 t..f..t............r
2 t......t..........rr
3 tt.....t.........r..
4 t...h....f..........
5 tr..................
6 t...t...........f.f.
7 t..t...r............
8 t...........r...t.fr
9 tt.............t....
0 t..................r
1 t...................
2 t...................
3 t...................
4 t...................
5 t...................
6 t...................
7 t...................
8 t...................
9 t...................
0 t...................
1 ....................
2 ....................
3 ....................
4 ....................
5 ....................
6 ....................
7 ....................
8 ....................
9 ....................

Turn = 15.
  01234567890123456789
0 tt.h................
1 ttt................r
2 ...r...............r
3 ......r............h
4 h...................
5 ..r..f..............
6 ...................h
7 .......f............
8 ...................r
9 ...................r
0 t.....t............r
1 t..f..t..........r.r
2 t......t.....r......
3 tt.....t....r.......
4 t........f.........r
5 tt..t...............
6 t...t...........f.f.
7 t..r................
8 t..r...........t.rr.
9 tt.............t....
0 t...................
1 t...................
2 t...................
3 t...................
4 t...................
5 t..................r
6 t...................
7 t...................
8 t...................
9 t...................
0 t...................
1 ....................
2 ....................
3 ....................
4 ....................
5 ....................
6 ....................
7 ....................
8 ....................
9 ....................

